IP Ports Diff Report for bup_qsys_pio_0
Mon May 14 14:23:36 2018
Quartus Prime Version 18.0.0 Build 204 04/04/2018 SJ Pro Edition


---------------------
; Table of Contents ;
---------------------
  1. IP Information



+----------------------------------------------------------------------------------------------------------------------------------------------------------------------------------+
; IP Information                                                                                                                                                                   ;
+----------------------+-----------------------------------------------------------------------------------------------------------------------------------------------------------+
; IP Variation Name    ; bup_qsys_pio_0                                                                                                                                            ;
; Prior Version        ; 17.1                                                                                                                                                      ;
; New Version          ; 18.0                                                                                                                                                      ;
; New File             ; /nfs/site/disks/psg_board_1/tanghu/stratix10GX_1sg280uf50_fpga_revd/board_update_portal_ltile_v17.1b169/ip/bup_qsys/bup_qsys_pio_0/synth/bup_qsys_pio_0.v ;
; Has Port Differences ; No                                                                                                                                                        ;
+----------------------+-----------------------------------------------------------------------------------------------------------------------------------------------------------+


