Info: Generated by version: 17.0 build 233
Info: Starting: Create block symbol file (.bsf)
Info: qsys-generate /data/mechen/stratix10_si/reference_design/pld/board_update_portal_v17.0b233/ip/bup_qsys/bup_qsys_clk_125m.ip --block-symbol-file --output-directory=/data/mechen/stratix10_si/reference_design/pld/board_update_portal_v17.0b233/ip/bup_qsys/bup_qsys_clk_125m --family="Stratix 10" --part=1SG280LU3F50E1VGS1
Info: qsys-generate succeeded.
Info: Finished: Create block symbol file (.bsf)
Info: 
Info: Starting: Create HDL design files for synthesis
Info: qsys-generate /data/mechen/stratix10_si/reference_design/pld/board_update_portal_v17.0b233/ip/bup_qsys/bup_qsys_clk_125m.ip --synthesis=VERILOG --output-directory=/data/mechen/stratix10_si/reference_design/pld/board_update_portal_v17.0b233/ip/bup_qsys/bup_qsys_clk_125m --family="Stratix 10" --part=1SG280LU3F50E1VGS1
Info: bup_qsys_clk_125m: "Transforming system: bup_qsys_clk_125m"
Info: bup_qsys_clk_125m: Running transform generation_view_transform
Info: bup_qsys_clk_125m: Running transform generation_view_transform took 0.001s
Info: bup_qsys_clk_125m: Running transform interconnect_transform_chooser
Info: bup_qsys_clk_125m: Running transform interconnect_transform_chooser took 0.049s
Info: bup_qsys_clk_125m: "Naming system components in system: bup_qsys_clk_125m"
Info: bup_qsys_clk_125m: "Processing generation queue"
Info: bup_qsys_clk_125m: "Generating: bup_qsys_clk_125m"
Info: bup_qsys_clk_125m: Done "bup_qsys_clk_125m" with 1 modules, 1 files
Info: qsys-generate succeeded.
Info: Finished: Create HDL design files for synthesis
