Info: Generated by version: 18.0 build 204
Info: Starting: Create block symbol file (.bsf)
Info: qsys-generate /nfs/site/disks/psg_board_1/tanghu/stratix10GX_1sg280uf50_fpga_revd/board_update_portal_ltile_v17.1b169/ip/bup_qsys/clk_125m.ip --block-symbol-file --output-directory=/nfs/site/disks/psg_board_1/tanghu/stratix10GX_1sg280uf50_fpga_revd/board_update_portal_ltile_v17.1b169/ip/bup_qsys/clk_125m --family="Stratix 10" --part=1SG280LU2F50E2VGS3
Info: qsys-generate succeeded.
Info: Finished: Create block symbol file (.bsf)
Info: 
Info: Starting: Create HDL design files for synthesis
Info: qsys-generate /nfs/site/disks/psg_board_1/tanghu/stratix10GX_1sg280uf50_fpga_revd/board_update_portal_ltile_v17.1b169/ip/bup_qsys/clk_125m.ip --synthesis=VERILOG --output-directory=/nfs/site/disks/psg_board_1/tanghu/stratix10GX_1sg280uf50_fpga_revd/board_update_portal_ltile_v17.1b169/ip/bup_qsys/clk_125m --family="Stratix 10" --part=1SG280LU2F50E2VGS3
Info: clk_125m: "Transforming system: clk_125m"
Info: clk_125m: Running transform generation_view_transform
Info: clk_125m: Running transform generation_view_transform took 0.000s
Info: clk_125m: Running transform interconnect_transform_chooser
Info: clk_125m: Running transform interconnect_transform_chooser took 0.008s
Info: clk_125m: "Naming system components in system: clk_125m"
Info: clk_125m: "Processing generation queue"
Info: clk_125m: "Generating: clk_125m"
Info: clk_125m: Done "clk_125m" with 1 modules, 1 files
Info: qsys-generate succeeded.
Info: Finished: Create HDL design files for synthesis
Info: Starting: Generate IP Core Documentation
Info: No documentation filesets were found for components in clk_125m. No files generated.
Info: Finished: Generate IP Core Documentation
