Info: Generated by version: 17.0 build 233
Info: Starting: Create block symbol file (.bsf)
Info: qsys-generate /data/mechen/stratix10_si/reference_design/pld/board_update_portal_v17.0b233/ip/bup_qsys/bup_qsys_descriptor_memory.ip --block-symbol-file --output-directory=/data/mechen/stratix10_si/reference_design/pld/board_update_portal_v17.0b233/ip/bup_qsys/bup_qsys_descriptor_memory --family="Stratix 10" --part=1SG280LU3F50E1VGS1
Info: qsys-generate succeeded.
Info: Finished: Create block symbol file (.bsf)
Info: 
Info: Starting: Create HDL design files for synthesis
Info: qsys-generate /data/mechen/stratix10_si/reference_design/pld/board_update_portal_v17.0b233/ip/bup_qsys/bup_qsys_descriptor_memory.ip --synthesis=VERILOG --output-directory=/data/mechen/stratix10_si/reference_design/pld/board_update_portal_v17.0b233/ip/bup_qsys/bup_qsys_descriptor_memory --family="Stratix 10" --part=1SG280LU3F50E1VGS1
Info: bup_qsys_descriptor_memory: "Transforming system: bup_qsys_descriptor_memory"
Info: bup_qsys_descriptor_memory: Running transform generation_view_transform
Info: bup_qsys_descriptor_memory: Running transform generation_view_transform took 0.001s
Info: descriptor_memory: Running transform generation_view_transform
Info: descriptor_memory: Running transform generation_view_transform took 0.000s
Info: bup_qsys_descriptor_memory: Running transform interconnect_transform_chooser
Info: bup_qsys_descriptor_memory: Running transform interconnect_transform_chooser took 0.043s
Info: bup_qsys_descriptor_memory: "Naming system components in system: bup_qsys_descriptor_memory"
Info: bup_qsys_descriptor_memory: "Processing generation queue"
Info: bup_qsys_descriptor_memory: "Generating: bup_qsys_descriptor_memory"
Info: bup_qsys_descriptor_memory: "Generating: bup_qsys_descriptor_memory_altera_avalon_onchip_memory2_170_fz74adq"
Info: descriptor_memory: Starting RTL generation for module 'bup_qsys_descriptor_memory_altera_avalon_onchip_memory2_170_fz74adq'
Info: descriptor_memory:   Generation command is [exec /swip_build/releases/acds/17.0/233/linux64/quartus/linux64/perl/bin/perl -I /swip_build/releases/acds/17.0/233/linux64/quartus/linux64/perl/lib -I /swip_build/releases/acds/17.0/233/linux64/quartus/sopc_builder/bin/europa -I /swip_build/releases/acds/17.0/233/linux64/quartus/sopc_builder/bin/perl_lib -I /swip_build/releases/acds/17.0/233/linux64/quartus/sopc_builder/bin -I /swip_build/releases/acds/17.0/233/linux64/quartus/../ip/altera/sopc_builder_ip/common -I /swip_build/releases/acds/17.0/233/linux64/quartus/../ip/altera/sopc_builder_ip/altera_avalon_onchip_memory2 -- /swip_build/releases/acds/17.0/233/linux64/quartus/../ip/altera/sopc_builder_ip/altera_avalon_onchip_memory2/generate_rtl.pl --name=bup_qsys_descriptor_memory_altera_avalon_onchip_memory2_170_fz74adq --dir=/tmp/arc/430335808/alt7218_719603833629644214.dir/0005_descriptor_memory_gen/ --quartus_dir=/swip_build/releases/acds/17.0/233/linux64/quartus --verilog --config=/tmp/arc/430335808/alt7218_719603833629644214.dir/0005_descriptor_memory_gen//bup_qsys_descriptor_memory_altera_avalon_onchip_memory2_170_fz74adq_component_configuration.pl  --do_build_sim=0  ]
Info: descriptor_memory: Done RTL generation for module 'bup_qsys_descriptor_memory_altera_avalon_onchip_memory2_170_fz74adq'
Info: bup_qsys_descriptor_memory: Done "bup_qsys_descriptor_memory" with 2 modules, 2 files
Info: qsys-generate succeeded.
Info: Finished: Create HDL design files for synthesis
