Info: Generated by version: 18.0 build 204
Info: Starting: Create block symbol file (.bsf)
Info: qsys-generate /nfs/site/disks/psg_board_1/tanghu/stratix10GX_1sg280uf50_fpga_revd/board_update_portal_ltile_v17.1b169/ip/bup_qsys/bup_qsys_cfi_flash_atb_bridge_0.ip --block-symbol-file --output-directory=/nfs/site/disks/psg_board_1/tanghu/stratix10GX_1sg280uf50_fpga_revd/board_update_portal_ltile_v17.1b169/ip/bup_qsys/bup_qsys_cfi_flash_atb_bridge_0 --family="Stratix 10" --part=1SG280LU2F50E2VGS3
Info: qsys-generate succeeded.
Info: Finished: Create block symbol file (.bsf)
Info: 
Info: Starting: Create HDL design files for synthesis
Info: qsys-generate /nfs/site/disks/psg_board_1/tanghu/stratix10GX_1sg280uf50_fpga_revd/board_update_portal_ltile_v17.1b169/ip/bup_qsys/bup_qsys_cfi_flash_atb_bridge_0.ip --synthesis=VERILOG --output-directory=/nfs/site/disks/psg_board_1/tanghu/stratix10GX_1sg280uf50_fpga_revd/board_update_portal_ltile_v17.1b169/ip/bup_qsys/bup_qsys_cfi_flash_atb_bridge_0 --family="Stratix 10" --part=1SG280LU2F50E2VGS3
Info: bup_qsys_cfi_flash_atb_bridge_0: "Transforming system: bup_qsys_cfi_flash_atb_bridge_0"
Info: bup_qsys_cfi_flash_atb_bridge_0: Running transform generation_view_transform
Info: bup_qsys_cfi_flash_atb_bridge_0: Running transform generation_view_transform took 0.001s
Info: cfi_flash_atb_bridge_0: Running transform generation_view_transform
Info: cfi_flash_atb_bridge_0: Running transform generation_view_transform took 0.000s
Info: bup_qsys_cfi_flash_atb_bridge_0: Running transform interconnect_transform_chooser
Info: bup_qsys_cfi_flash_atb_bridge_0: Running transform interconnect_transform_chooser took 0.043s
Info: bup_qsys_cfi_flash_atb_bridge_0: "Naming system components in system: bup_qsys_cfi_flash_atb_bridge_0"
Info: bup_qsys_cfi_flash_atb_bridge_0: "Processing generation queue"
Info: bup_qsys_cfi_flash_atb_bridge_0: "Generating: bup_qsys_cfi_flash_atb_bridge_0"
Info: bup_qsys_cfi_flash_atb_bridge_0: "Generating: bup_qsys_cfi_flash_atb_bridge_0_altera_tristate_conduit_bridge_180_bvlhvgy"
Info: bup_qsys_cfi_flash_atb_bridge_0: Done "bup_qsys_cfi_flash_atb_bridge_0" with 2 modules, 2 files
Info: qsys-generate succeeded.
Info: Finished: Create HDL design files for synthesis
Info: Starting: Generate IP Core Documentation
Info: No documentation filesets were found for components in bup_qsys_cfi_flash_atb_bridge_0. No files generated.
Info: Finished: Generate IP Core Documentation
