Info: Generated by version: 18.0 build 204
Info: Starting: Create simulation model
Info: qsys-generate /nfs/site/disks/psg_board_1/tanghu/stratix10GX_1sg280uf50_fpga_revd/board_update_portal_ltile_v17.1b169/io_opendrain.qsys --simulation=VERILOG --allow-mixed-language-simulation --output-directory=/nfs/site/disks/psg_board_1/tanghu/stratix10GX_1sg280uf50_fpga_revd/board_update_portal_ltile_v17.1b169/io_opendrain --family="Stratix 10" --part=1SG280LU2F50E2VGS3
Progress: Loading board_update_portal_ltile_v17.1b169/io_opendrain.qsys
Progress: Reading input file
Progress: Adding gpio_0 [altera_gpio 18.0]
Progress: Parameterizing module gpio_0
Progress: Building connections
Progress: Parameterizing connections
Progress: Validating
Progress: Done reading input file
Info: io_opendrain.gpio_0: Altera GPIO supports a maximum interface frequency of 300 MHZ.
Info: io_opendrain: "Transforming system: io_opendrain"
Info: io_opendrain: Running transform generation_view_transform
Info: io_opendrain: Running transform generation_view_transform took 0.001s
Info: gpio_0: Running transform generation_view_transform
Info: gpio_0: Running transform generation_view_transform took 0.000s
Info: core: Running transform generation_view_transform
Info: core: Running transform generation_view_transform took 0.000s
Info: io_opendrain: Running transform interconnect_transform_chooser
Info: io_opendrain: Running transform interconnect_transform_chooser took 0.046s
Info: gpio_0: Running transform interconnect_transform_chooser
Info: gpio_0: Running transform interconnect_transform_chooser took 0.008s
Info: io_opendrain: "Naming system components in system: io_opendrain"
Info: io_opendrain: "Processing generation queue"
Info: io_opendrain: "Generating: io_opendrain"
Info: io_opendrain: "Generating: io_opendrain_altera_gpio_180_lx62zja"
Info: io_opendrain: "Generating: altera_gpio"
Info: io_opendrain: Done "io_opendrain" with 3 modules, 3 files
Info: Generating the following file(s) for MODELSIM simulator in /nfs/site/disks/psg_board_1/tanghu/stratix10GX_1sg280uf50_fpga_revd/board_update_portal_ltile_v17.1b169/io_opendrain/sim/ directory:
Info: 	common/modelsim_files.tcl
Info: Generating the following file(s) for VCSMX simulator in /nfs/site/disks/psg_board_1/tanghu/stratix10GX_1sg280uf50_fpga_revd/board_update_portal_ltile_v17.1b169/io_opendrain/sim/ directory:
Info: 	common/vcsmx_files.tcl
Info: Generating the following file(s) for VCS simulator in /nfs/site/disks/psg_board_1/tanghu/stratix10GX_1sg280uf50_fpga_revd/board_update_portal_ltile_v17.1b169/io_opendrain/sim/ directory:
Info: 	common/vcs_files.tcl
Info: Generating the following file(s) for RIVIERA simulator in /nfs/site/disks/psg_board_1/tanghu/stratix10GX_1sg280uf50_fpga_revd/board_update_portal_ltile_v17.1b169/io_opendrain/sim/ directory:
Info: 	common/riviera_files.tcl
Info: Generating the following file(s) for NCSIM simulator in /nfs/site/disks/psg_board_1/tanghu/stratix10GX_1sg280uf50_fpga_revd/board_update_portal_ltile_v17.1b169/io_opendrain/sim/ directory:
Info: 	common/ncsim_files.tcl
Info: Generating the following file(s) for XCELIUM simulator in /nfs/site/disks/psg_board_1/tanghu/stratix10GX_1sg280uf50_fpga_revd/board_update_portal_ltile_v17.1b169/io_opendrain/sim/ directory:
Info: 	common/xcelium_files.tcl
Info: For information on how to simulate your IP, see the explanatory comments in the simulator-specific subdirectories under /nfs/site/disks/psg_board_1/tanghu/stratix10GX_1sg280uf50_fpga_revd/board_update_portal_ltile_v17.1b169/io_opendrain/sim/.
Info: Regenerate these scripts whenever you make any change to any Quartus-generated IP in your project.
Info: qsys-generate succeeded.
Info: Finished: Create simulation model
Info: Starting: Create Modelsim Project.
Info: sim-script-gen --system-file=/nfs/site/disks/psg_board_1/tanghu/stratix10GX_1sg280uf50_fpga_revd/board_update_portal_ltile_v17.1b169/io_opendrain.qsys --output-directory=/nfs/site/disks/psg_board_1/tanghu/stratix10GX_1sg280uf50_fpga_revd/board_update_portal_ltile_v17.1b169/io_opendrain/sim/ --use-relative-paths=true
Info: Generating the following file(s) for MODELSIM simulator in /nfs/site/disks/psg_board_1/tanghu/stratix10GX_1sg280uf50_fpga_revd/board_update_portal_ltile_v17.1b169/io_opendrain/sim/ directory:
Info: 	mentor/msim_setup.tcl
Info: Generating the following file(s) for VCSMX simulator in /nfs/site/disks/psg_board_1/tanghu/stratix10GX_1sg280uf50_fpga_revd/board_update_portal_ltile_v17.1b169/io_opendrain/sim/ directory:
Info: 	synopsys/vcsmx/synopsys_sim.setup
Info: 	synopsys/vcsmx/vcsmx_setup.sh
Info: Generating the following file(s) for VCS simulator in /nfs/site/disks/psg_board_1/tanghu/stratix10GX_1sg280uf50_fpga_revd/board_update_portal_ltile_v17.1b169/io_opendrain/sim/ directory:
Info: 	synopsys/vcs/vcs_setup.sh
Info: Generating the following file(s) for RIVIERA simulator in /nfs/site/disks/psg_board_1/tanghu/stratix10GX_1sg280uf50_fpga_revd/board_update_portal_ltile_v17.1b169/io_opendrain/sim/ directory:
Info: 	aldec/rivierapro_setup.tcl
Info: Generating the following file(s) for NCSIM simulator in /nfs/site/disks/psg_board_1/tanghu/stratix10GX_1sg280uf50_fpga_revd/board_update_portal_ltile_v17.1b169/io_opendrain/sim/ directory:
Info: 	cadence/cds.lib
Info: 	cadence/hdl.var
Info: 	cadence/ncsim_setup.sh
Info: 	3 .cds.lib files in cadence/cds_libs/ directory
Info: Generating the following file(s) for XCELIUM simulator in /nfs/site/disks/psg_board_1/tanghu/stratix10GX_1sg280uf50_fpga_revd/board_update_portal_ltile_v17.1b169/io_opendrain/sim/ directory:
Info: 	xcelium/cds.lib
Info: 	xcelium/hdl.var
Info: 	xcelium/xcelium_setup.sh
Info: 	3 .cds.lib files in xcelium/cds_libs/ directory
Info: For information on how to simulate your IP, see the explanatory comments in the simulator-specific subdirectories under /nfs/site/disks/psg_board_1/tanghu/stratix10GX_1sg280uf50_fpga_revd/board_update_portal_ltile_v17.1b169/io_opendrain/sim/.
Info: Regenerate these scripts whenever you make any change to any Quartus-generated IP in your project.
Info: Finished: Create Modelsim Project.
Info: Starting: Create block symbol file (.bsf)
Info: qsys-generate /nfs/site/disks/psg_board_1/tanghu/stratix10GX_1sg280uf50_fpga_revd/board_update_portal_ltile_v17.1b169/io_opendrain.qsys --block-symbol-file --output-directory=/nfs/site/disks/psg_board_1/tanghu/stratix10GX_1sg280uf50_fpga_revd/board_update_portal_ltile_v17.1b169/io_opendrain --family="Stratix 10" --part=1SG280LU2F50E2VGS3
Progress: Loading board_update_portal_ltile_v17.1b169/io_opendrain.qsys
Progress: Reading input file
Progress: Adding gpio_0 [altera_gpio 18.0]
Progress: Parameterizing module gpio_0
Progress: Building connections
Progress: Parameterizing connections
Progress: Validating
Progress: Done reading input file
Info: io_opendrain.gpio_0: Altera GPIO supports a maximum interface frequency of 300 MHZ.
Info: qsys-generate succeeded.
Info: Finished: Create block symbol file (.bsf)
Info: 
Info: Starting: Create HDL design files for synthesis
Info: qsys-generate /nfs/site/disks/psg_board_1/tanghu/stratix10GX_1sg280uf50_fpga_revd/board_update_portal_ltile_v17.1b169/io_opendrain.qsys --synthesis=VERILOG --output-directory=/nfs/site/disks/psg_board_1/tanghu/stratix10GX_1sg280uf50_fpga_revd/board_update_portal_ltile_v17.1b169/io_opendrain --family="Stratix 10" --part=1SG280LU2F50E2VGS3
Progress: Loading board_update_portal_ltile_v17.1b169/io_opendrain.qsys
Progress: Reading input file
Progress: Adding gpio_0 [altera_gpio 18.0]
Progress: Parameterizing module gpio_0
Progress: Building connections
Progress: Parameterizing connections
Progress: Validating
Progress: Done reading input file
Info: io_opendrain.gpio_0: Altera GPIO supports a maximum interface frequency of 300 MHZ.
Info: io_opendrain: "Transforming system: io_opendrain"
Info: io_opendrain: Running transform generation_view_transform
Info: io_opendrain: Running transform generation_view_transform took 0.000s
Info: gpio_0: Running transform generation_view_transform
Info: gpio_0: Running transform generation_view_transform took 0.000s
Info: core: Running transform generation_view_transform
Info: core: Running transform generation_view_transform took 0.000s
Info: io_opendrain: Running transform interconnect_transform_chooser
Info: io_opendrain: Running transform interconnect_transform_chooser took 0.008s
Info: gpio_0: Running transform interconnect_transform_chooser
Info: gpio_0: Running transform interconnect_transform_chooser took 0.008s
Info: io_opendrain: "Naming system components in system: io_opendrain"
Info: io_opendrain: "Processing generation queue"
Info: io_opendrain: "Generating: io_opendrain"
Info: io_opendrain: "Generating: io_opendrain_altera_gpio_180_lx62zja"
Info: io_opendrain: "Generating: altera_gpio"
Info: io_opendrain: Done "io_opendrain" with 3 modules, 3 files
Info: qsys-generate succeeded.
Info: Finished: Create HDL design files for synthesis
