Info: Generated by version: 17.0 build 236
Info: Starting: Create block symbol file (.bsf)
Info: qsys-generate /data/nwang/S10_SI/pld/SSS_Q17_B236/ip/bup_qsys/bup_qsys_ext_flash.ip --block-symbol-file --output-directory=/data/nwang/S10_SI/pld/SSS_Q17_B236/ip/bup_qsys/bup_qsys_ext_flash --family="Stratix 10" --part=1SG280LU3F50E1VGS1
Warning: bup_qsys_ext_flash.ext_flash: Properties (isFlash,isMemoryDevice,isNonVolatileStorage) have been set on interface uas - in composed mode these are ignored
Info: qsys-generate succeeded.
Info: Finished: Create block symbol file (.bsf)
Info: 
Info: Starting: Create HDL design files for synthesis
Info: qsys-generate /data/nwang/S10_SI/pld/SSS_Q17_B236/ip/bup_qsys/bup_qsys_ext_flash.ip --synthesis=VERILOG --output-directory=/data/nwang/S10_SI/pld/SSS_Q17_B236/ip/bup_qsys/bup_qsys_ext_flash --family="Stratix 10" --part=1SG280LU3F50E1VGS1
Warning: bup_qsys_ext_flash.ext_flash: Properties (isFlash,isMemoryDevice,isNonVolatileStorage) have been set on interface uas - in composed mode these are ignored
Info: Skipping generation of bup_qsys_ext_flash: files already generated.
Info: qsys-generate succeeded.
Info: Finished: Create HDL design files for synthesis
