Assembler report for s10_fpga_bup
Mon Jun 10 13:16:48 2019
Quartus Prime Version 18.0.0 Build 219 04/25/2018 SJ Pro Edition


---------------------
; Table of Contents ;
---------------------
  1. Legal Notice
  2. Assembler Summary
  3. Assembler Settings
  4. Parallel Compilation
  5. Assembler Messages
  6. Assembler Encrypted IP Cores Summary
  7. Assembler Generated Files
  8. Assembler Device Options: s10_fpga_bup.sof
  9. Assembler INI Usage



----------------
; Legal Notice ;
----------------
Copyright (C) 2018  Intel Corporation. All rights reserved.
Your use of Intel Corporation's design tools, logic functions 
and other software and tools, and its AMPP partner logic 
functions, and any output files from any of the foregoing 
(including device programming or simulation files), and any 
associated documentation or information are expressly subject 
to the terms and conditions of the Intel Program License 
Subscription Agreement, the Intel Quartus Prime License Agreement,
the Intel FPGA IP License Agreement, or other applicable license
agreement, including, without limitation, that your use is for
the sole purpose of programming logic devices manufactured by
Intel and sold by Intel or its authorized distributors.  Please
refer to the applicable agreement for further details.



+---------------------------------------------------------------+
; Assembler Summary                                             ;
+-----------------------+---------------------------------------+
; Assembler Status      ; Successful - Mon Jun 10 13:16:48 2019 ;
; Revision Name         ; s10_fpga_bup                          ;
; Top-level Entity Name ; s10_fpga_bup_top                      ;
; Family                ; Stratix 10                            ;
; Device                ; 1SG280LU2F50E2VGS3                    ;
+-----------------------+---------------------------------------+


+-----------------------------------------------------------------------------------------------------------------+
; Assembler Settings                                                                                              ;
+-----------------------------------------------------------------------------+-----------------+-----------------+
; Option                                                                      ; Setting         ; Default Value   ;
+-----------------------------------------------------------------------------+-----------------+-----------------+
; Enable parallel Assembler and Timing Analyzer during compilation            ; On              ; On              ;
; Enable compact report table                                                 ; Off             ; Off             ;
; PMBus device 0 slave address                                                ; 4F              ; 00              ;
; Allow RAM Retiming                                                          ; Off             ; Off             ;
; Allow DSP Retiming                                                          ; Off             ; Off             ;
; Generate compressed bitstreams                                              ; On              ; On              ;
; Compression mode                                                            ; Off             ; Off             ;
; Disable Register Power-up Initialization                                    ; Off             ; Off             ;
; Clock source for configuration device                                       ; Internal        ; Internal        ;
; Clock frequency of the configuration device                                 ; 10 MHz          ; 10 MHz          ;
; Divide clock frequency by                                                   ; 1               ; 1               ;
; Auto user code                                                              ; On              ; On              ;
; Configuration device                                                        ; Auto            ; Auto            ;
; Never expose to user                                                        ; 1               ; 1               ;
; Voltage stable delay                                                        ; 10              ; 10              ;
; FPGA release delay                                                          ; 10              ; 10              ;
; Initial delay                                                               ; 0               ; 0               ;
; Bus speed mode                                                              ; 100 KHz         ; 100 KHz         ;
; Slave device type                                                           ; LTM4677         ; LTM4677         ;
; Device address in PMBus Slave mode                                          ; 00              ; 00              ;
; PMBus device 1 slave address                                                ; 00              ; 00              ;
; PMBus device 2 slave address                                                ; 00              ; 00              ;
; PMBus device 3 slave address                                                ; 00              ; 00              ;
; PMBus device 4 slave address                                                ; 00              ; 00              ;
; PMBus device 5 slave address                                                ; 00              ; 00              ;
; PMBus device 6 slave address                                                ; 00              ; 00              ;
; PMBus device 7 slave address                                                ; 00              ; 00              ;
; Voltage output format                                                       ; Auto discovery  ; Auto discovery  ;
; Direct format coefficient m                                                 ; 0               ; 0               ;
; Direct format coefficient b                                                 ; 0               ; 0               ;
; Direct format coefficient R                                                 ; 0               ; 0               ;
; Linear format N                                                             ; 0               ; 0               ;
; Translated voltage value unit                                               ; Volts           ; Volts           ;
; obsolete - Data setup time in nanoseconds                                   ; 0               ; 0               ;
; obsolete - Data hold time in nanoseconds                                    ; 0               ; 0               ;
; obsolete - Clock/data fall time in nanoseconds                              ; 0               ; 0               ;
; obsolete - Clock/data rise time in nanoseconds                              ; 0               ; 0               ;
; Enable PAGE command                                                         ; Off             ; Off             ;
; VOUT reading error margin index                                             ; 0               ; 0               ;
; Configuration device auto user code                                         ; Off             ; Off             ;
; Generate Tabular Text File (.ttf) For Target Device                         ; Off             ; Off             ;
; Generate Raw Binary File (.rbf) For Target Device                           ; Off             ; Off             ;
; Generate Partial Reconfiguration Raw Binary File (.rbf)                     ; On              ; On              ;
; Generate Hexadecimal (Intel-Format) Output File (.hexout) for Target Device ; Off             ; Off             ;
; Hexadecimal Output File start address                                       ; 0               ; 0               ;
; Hexadecimal Output File count direction                                     ; Up              ; Up              ;
; Use Checkered Pattern as Uninitialized RAM Content                          ; Off             ; Off             ;
; HPS/FPGA configuration order                                                ; After INIT_DONE ; After INIT_DONE ;
; HPS debug access port (DAP)                                                 ; Disabled        ; Disabled        ;
; Generate Serial Vector Format File (.svf) for Target Device                 ; Off             ; Off             ;
; Generate a JEDEC STAPL Format File (.jam) for Target Device                 ; Off             ; Off             ;
; Generate a compressed Jam STAPL Byte Code 2.0 File (.jbc) for Target Device ; Off             ; Off             ;
; Generate a compressed Jam STAPL Byte Code 2.0 File (.jbc) for Target Device ; On              ; On              ;
+-----------------------------------------------------------------------------+-----------------+-----------------+


+------------------------------------------+
; Parallel Compilation                     ;
+----------------------------+-------------+
; Processors                 ; Number      ;
+----------------------------+-------------+
; Number detected on machine ; 8           ;
; Maximum allowed            ; 4           ;
;                            ;             ;
; Average used               ; 2.74        ;
; Maximum used               ; 4           ;
;                            ;             ;
; Usage by Processor         ; % Time Used ;
;     Processor 1            ; 100.0%      ;
;     Processors 2-4         ;  58.1%      ;
+----------------------------+-------------+


+--------------------+
; Assembler Messages ;
+--------------------+
Info: *******************************************************************
Info: Running Quartus Prime Assembler
    Info: Version 18.0.0 Build 219 04/25/2018 SJ Pro Edition
    Info: Processing started: Mon Jun 10 13:15:13 2019
Info: Command: quartus_asm --read_settings_files=on --write_settings_files=off s10_fpga_bup -c s10_fpga_bup
Info: Using INI file /hepuser/shroffm2/FPGA/stratix10GX_1sg280uf50_fpga_revd_v18.0b219_v1.0/examples/board_update_portal/ES/board_update_portal/quartus.ini
Info (16677): Loading final database
Info (16734): Loading "final" snapshot for partition "root_partition".
Info (16734): Loading "final" snapshot for partition "auto_fab_0".
Info (16678): Successfully loaded final database: elapsed time is 00:00:24
Info: Quartus Prime Assembler was successful. 0 errors, 0 warnings
    Info: Peak virtual memory: 8098 megabytes
    Info: Processing ended: Mon Jun 10 13:16:50 2019
    Info: Elapsed time: 00:01:37
    Info: Total CPU time (on all processors): 00:03:44


+-----------------------------------------------------------+
; Assembler Encrypted IP Cores Summary                      ;
+--------+-----------------------------------+--------------+
; Vendor ; IP Core Name                      ; License Type ;
+--------+-----------------------------------+--------------+
; Altera ; Nios II Processor (6AF7 00A2)     ; Licensed     ;
; Altera ; Triple-Speed Ethernet (6AF7 00BD) ; Licensed     ;
; Altera ; Signal Tap (6AF7 BCE1)            ; Licensed     ;
; Altera ; Signal Tap (6AF7 BCEC)            ; Licensed     ;
+--------+-----------------------------------+--------------+


+----------------------------------------------------------------------------------------------------------------------------------------------------------+
; Assembler Generated Files                                                                                                                                ;
+----------------------------------------------------------------------------------------------------------------------------------------------------------+
; File Name                                                                                                                                                ;
+----------------------------------------------------------------------------------------------------------------------------------------------------------+
; /hepuser/shroffm2/FPGA/stratix10GX_1sg280uf50_fpga_revd_v18.0b219_v1.0/examples/board_update_portal/ES/board_update_portal/output_files/s10_fpga_bup.sof ;
+----------------------------------------------------------------------------------------------------------------------------------------------------------+


+--------------------------------------------+
; Assembler Device Options: s10_fpga_bup.sof ;
+----------------+---------------------------+
; Option         ; Setting                   ;
+----------------+---------------------------+
; JTAG usercode  ; 0xFFFFFFFF                ;
; Checksum       ; 0x3FC9A3C6                ;
+----------------+---------------------------+


+---------------------------------------------------------------------------------------------------------------------------------------------------------------+
; Assembler INI Usage                                                                                                                                           ;
+----------------------+----------------------------------------------------------------------------------------------------------------------------------------+
; Option               ; Usage                                                                                                                                  ;
+----------------------+----------------------------------------------------------------------------------------------------------------------------------------+
; Initialization file: ; /hepuser/shroffm2/FPGA/stratix10GX_1sg280uf50_fpga_revd_v18.0b219_v1.0/examples/board_update_portal/ES/board_update_portal/quartus.ini ;
; force_vid_off        ; on                                                                                                                                     ;
+----------------------+----------------------------------------------------------------------------------------------------------------------------------------+


