Fitter Retime Stage Report for s10_fpga_bup
Mon Jun 10 12:58:34 2019
Quartus Prime Version 18.0.0 Build 219 04/25/2018 SJ Pro Edition


---------------------
; Table of Contents ;
---------------------
  1. Hyper-Retimer Settings
  2. Reset Sequence Requirement
  3. Retiming Limit Summary
  4. Critical Chain Summary for Transfer from bup_qsys_inst|tse_0_tse|tse_mac|i_lvdsio_0|core_core_ck_name_0 to clk_50m_s10
  5. Critical Chain Summary for Transfer from bup_qsys_inst|tse_0_tse|tse_mac|i_lvdsio_0|core|arch_inst|pll_inst|internal_pll_loaden1 to bup_qsys_inst|tse_0_tse|tse_mac|i_lvdsio_0|core|arch_inst|pll_inst|internal_pll_fclk1
  6. Transfer from clk_s10top_125m_p to clk_50m_s10 (Meets timing requirements: No further analysis performed.)
  7. Transfer from bup_qsys_inst|tse_0_tse|tse_mac|i_lvdsio_0|core_core_ck_name_0 to clk_s10top_125m_p (Meets timing requirements: No further analysis performed.)
  8. Clock Domain clk_50m_s10 (Meets timing requirements: No further analysis performed.)
  9. Clock Domain clk_s10top_125m_p (Meets timing requirements: No further analysis performed.)
 10. Transfer from clk_50m_s10 to clk_s10top_125m_p (Meets timing requirements: No further analysis performed.)
 11. Clock Domain altera_reserved_tck (Meets timing requirements: No further analysis performed.)
 12. Clock Domain bup_qsys_inst|tse_0_tse|tse_mac|i_lvdsio_0|core_core_ck_name_0 (Meets timing requirements: No further analysis performed.)
 13. Transfer from bup_qsys_inst|tse_0_tse|tse_mac|i_lvdsio_0|core_dpa_data_out_0_9 to bup_qsys_inst|tse_0_tse|tse_mac|i_lvdsio_0|core_core_ck_name_0 (Meets timing requirements: No further analysis performed.)
 14. Transfer from bup_qsys_inst|tse_0_tse|tse_mac|i_lvdsio_0|core_dpa_data_out_0_8 to bup_qsys_inst|tse_0_tse|tse_mac|i_lvdsio_0|core_core_ck_name_0 (Meets timing requirements: No further analysis performed.)
 15. Transfer from bup_qsys_inst|tse_0_tse|tse_mac|i_lvdsio_0|core_dpa_data_out_0_2 to bup_qsys_inst|tse_0_tse|tse_mac|i_lvdsio_0|core_core_ck_name_0 (Meets timing requirements: No further analysis performed.)
 16. Transfer from bup_qsys_inst|tse_0_tse|tse_mac|i_lvdsio_0|core_dpa_data_out_0_6 to bup_qsys_inst|tse_0_tse|tse_mac|i_lvdsio_0|core_core_ck_name_0 (Meets timing requirements: No further analysis performed.)
 17. Transfer from bup_qsys_inst|tse_0_tse|tse_mac|i_lvdsio_0|core_dpa_data_out_0_5 to bup_qsys_inst|tse_0_tse|tse_mac|i_lvdsio_0|core_core_ck_name_0 (Meets timing requirements: No further analysis performed.)
 18. Transfer from bup_qsys_inst|tse_0_tse|tse_mac|i_lvdsio_0|core_dpa_data_out_0_7 to bup_qsys_inst|tse_0_tse|tse_mac|i_lvdsio_0|core_core_ck_name_0 (Meets timing requirements: No further analysis performed.)
 19. Transfer from bup_qsys_inst|tse_0_tse|tse_mac|i_lvdsio_0|core_dpa_data_out_0_0 to bup_qsys_inst|tse_0_tse|tse_mac|i_lvdsio_0|core_core_ck_name_0 (Meets timing requirements: No further analysis performed.)
 20. Transfer from bup_qsys_inst|tse_0_tse|tse_mac|i_lvdsio_0|core_dpa_data_out_0_3 to bup_qsys_inst|tse_0_tse|tse_mac|i_lvdsio_0|core_core_ck_name_0 (Meets timing requirements: No further analysis performed.)
 21. Transfer from bup_qsys_inst|tse_0_tse|tse_mac|i_lvdsio_0|core_dpa_data_out_0_4 to bup_qsys_inst|tse_0_tse|tse_mac|i_lvdsio_0|core_core_ck_name_0 (Meets timing requirements: No further analysis performed.)
 22. Transfer from bup_qsys_inst|tse_0_tse|tse_mac|i_lvdsio_0|core_dpa_data_out_0_1 to bup_qsys_inst|tse_0_tse|tse_mac|i_lvdsio_0|core_core_ck_name_0 (Meets timing requirements: No further analysis performed.)
 23. Transfer from clk_s10top_125m_p to bup_qsys_inst|tse_0_tse|tse_mac|i_lvdsio_0|core|arch_inst|pll_inst|internal_pll_fclk1 (Meets timing requirements: No further analysis performed.)
 24. Clock Domain bup_qsys_inst|tse_0_tse|tse_mac|i_lvdsio_0|core|arch_inst|pll_inst|internal_pll_outclk4 (Meets timing requirements: No further analysis performed.)
 25. Transfer from clk_50m_s10 to bup_qsys_inst|tse_0_tse|tse_mac|i_lvdsio_0|core_core_ck_name_0 (Meets timing requirements: No further analysis performed.)
 26. Transfer from clk_s10top_125m_p to bup_qsys_inst|tse_0_tse|tse_mac|i_lvdsio_0|core_core_ck_name_0 (Meets timing requirements: No further analysis performed.)
 27. Transfer from altera_reserved_tck to clk_50m_s10 (Meets timing requirements: No further analysis performed.)
 28. Transfer from clk_50m_s10 to altera_reserved_tck (Meets timing requirements: No further analysis performed.)
 29. Retime Messages



+----------------------------------+
; Hyper-Retimer Settings           ;
+--------+---------+---------------+
; Option ; Setting ; Default Value ;
+--------+---------+---------------+


+-----------------------------------------------------------------------------------------------------------------------+
; Reset Sequence Requirement                                                                                            ;
+-----------------------------------------------------------------------------------------+-----------------------------+
; Clock Name                                                                              ; Number of additional cycles ;
+-----------------------------------------------------------------------------------------+-----------------------------+
; clk_50m_s10                                                                             ; 0                           ;
; clk_s10top_125m_p                                                                       ; 0                           ;
; altera_reserved_tck                                                                     ; 0                           ;
; bup_qsys_inst|tse_0_tse|tse_mac|i_lvdsio_0|core|arch_inst|pll_inst|internal_pll_vcoph   ; 0                           ;
; bup_qsys_inst|tse_0_tse|tse_mac|i_lvdsio_0|core|arch_inst|pll_inst|internal_pll_fclk1   ; 0                           ;
; bup_qsys_inst|tse_0_tse|tse_mac|i_lvdsio_0|core|arch_inst|pll_inst|internal_pll_loaden1 ; 0                           ;
; bup_qsys_inst|tse_0_tse|tse_mac|i_lvdsio_0|core|arch_inst|pll_inst|internal_pll_outclk4 ; 0                           ;
; bup_qsys_inst|tse_0_tse|tse_mac|i_lvdsio_0|core_dpa_ck_name_0                           ; 0                           ;
; bup_qsys_inst|tse_0_tse|tse_mac|i_lvdsio_0|core_core_ck_name_0                          ; 0                           ;
; bup_qsys_inst|tse_0_tse|tse_mac|i_lvdsio_0|core_dpa_data_out_0_0                        ; 0                           ;
; bup_qsys_inst|tse_0_tse|tse_mac|i_lvdsio_0|core_dpa_data_out_0_1                        ; 0                           ;
; bup_qsys_inst|tse_0_tse|tse_mac|i_lvdsio_0|core_dpa_data_out_0_2                        ; 0                           ;
; bup_qsys_inst|tse_0_tse|tse_mac|i_lvdsio_0|core_dpa_data_out_0_3                        ; 0                           ;
; bup_qsys_inst|tse_0_tse|tse_mac|i_lvdsio_0|core_dpa_data_out_0_4                        ; 0                           ;
; bup_qsys_inst|tse_0_tse|tse_mac|i_lvdsio_0|core_dpa_data_out_0_5                        ; 0                           ;
; bup_qsys_inst|tse_0_tse|tse_mac|i_lvdsio_0|core_dpa_data_out_0_6                        ; 0                           ;
; bup_qsys_inst|tse_0_tse|tse_mac|i_lvdsio_0|core_dpa_data_out_0_7                        ; 0                           ;
; bup_qsys_inst|tse_0_tse|tse_mac|i_lvdsio_0|core_dpa_data_out_0_8                        ; 0                           ;
; bup_qsys_inst|tse_0_tse|tse_mac|i_lvdsio_0|core_dpa_data_out_0_9                        ; 0                           ;
+-----------------------------------------------------------------------------------------+-----------------------------+
Note: Due to retiming optimizations, a clock domain may require a longer reset sequence to ensure correct functionality.  The table above indicates the minimum number of additional reset sequence cycles needed for each clock domain.


+------------------------------------------------------------------------------------------------------------------------------------------------------------------------------------------------------------------------------------------------------------------------------------------------------------------------------------------------------------------------------------------------+
; Retiming Limit Summary                                                                                                                                                                                                                                                                                                                                                                         ;
+------------------------------------------------------------------------------------------------------------------------------------------------------------------------------------------------+-----------------------------------------------------------+-----------------------------------------------------------------------------------------------------------------------------------+
; Clock Transfer                                                                                                                                                                                 ; Limiting Reason                                           ; Recommendation                                                                                                                    ;
+------------------------------------------------------------------------------------------------------------------------------------------------------------------------------------------------+-----------------------------------------------------------+-----------------------------------------------------------------------------------------------------------------------------------+
; Transfer from bup_qsys_inst|tse_0_tse|tse_mac|i_lvdsio_0|core_core_ck_name_0 to clk_50m_s10                                                                                                    ; Path Limit                                                ; None.  Performance limit reached.                                                                                                 ;
;                                                                                                                                                                                                ;                                                           ;    The critical chain is a path with no available register locations within.                                                      ;
; Transfer from bup_qsys_inst|tse_0_tse|tse_mac|i_lvdsio_0|core|arch_inst|pll_inst|internal_pll_loaden1 to bup_qsys_inst|tse_0_tse|tse_mac|i_lvdsio_0|core|arch_inst|pll_inst|internal_pll_fclk1 ; Insufficient Registers                                    ; See the Fast Forward Timing Closure Recommendations report for step-by-step suggestions for RTL changes and estimated performance ;
; Transfer from clk_s10top_125m_p to clk_50m_s10                                                                                                                                                 ; Meets timing requirements: No further analysis performed. ; None                                                                                                                              ;
; Transfer from bup_qsys_inst|tse_0_tse|tse_mac|i_lvdsio_0|core_core_ck_name_0 to clk_s10top_125m_p                                                                                              ; Meets timing requirements: No further analysis performed. ; None                                                                                                                              ;
; Clock Domain clk_50m_s10                                                                                                                                                                       ; Meets timing requirements: No further analysis performed. ; None                                                                                                                              ;
; Clock Domain clk_s10top_125m_p                                                                                                                                                                 ; Meets timing requirements: No further analysis performed. ; None                                                                                                                              ;
; Transfer from clk_50m_s10 to clk_s10top_125m_p                                                                                                                                                 ; Meets timing requirements: No further analysis performed. ; None                                                                                                                              ;
; Clock Domain altera_reserved_tck                                                                                                                                                               ; Meets timing requirements: No further analysis performed. ; None                                                                                                                              ;
; Clock Domain bup_qsys_inst|tse_0_tse|tse_mac|i_lvdsio_0|core_core_ck_name_0                                                                                                                    ; Meets timing requirements: No further analysis performed. ; None                                                                                                                              ;
; Transfer from bup_qsys_inst|tse_0_tse|tse_mac|i_lvdsio_0|core_dpa_data_out_0_9 to bup_qsys_inst|tse_0_tse|tse_mac|i_lvdsio_0|core_core_ck_name_0                                               ; Meets timing requirements: No further analysis performed. ; None                                                                                                                              ;
; Transfer from bup_qsys_inst|tse_0_tse|tse_mac|i_lvdsio_0|core_dpa_data_out_0_8 to bup_qsys_inst|tse_0_tse|tse_mac|i_lvdsio_0|core_core_ck_name_0                                               ; Meets timing requirements: No further analysis performed. ; None                                                                                                                              ;
; Transfer from bup_qsys_inst|tse_0_tse|tse_mac|i_lvdsio_0|core_dpa_data_out_0_2 to bup_qsys_inst|tse_0_tse|tse_mac|i_lvdsio_0|core_core_ck_name_0                                               ; Meets timing requirements: No further analysis performed. ; None                                                                                                                              ;
; Transfer from bup_qsys_inst|tse_0_tse|tse_mac|i_lvdsio_0|core_dpa_data_out_0_6 to bup_qsys_inst|tse_0_tse|tse_mac|i_lvdsio_0|core_core_ck_name_0                                               ; Meets timing requirements: No further analysis performed. ; None                                                                                                                              ;
; Transfer from bup_qsys_inst|tse_0_tse|tse_mac|i_lvdsio_0|core_dpa_data_out_0_5 to bup_qsys_inst|tse_0_tse|tse_mac|i_lvdsio_0|core_core_ck_name_0                                               ; Meets timing requirements: No further analysis performed. ; None                                                                                                                              ;
; Transfer from bup_qsys_inst|tse_0_tse|tse_mac|i_lvdsio_0|core_dpa_data_out_0_7 to bup_qsys_inst|tse_0_tse|tse_mac|i_lvdsio_0|core_core_ck_name_0                                               ; Meets timing requirements: No further analysis performed. ; None                                                                                                                              ;
; Transfer from bup_qsys_inst|tse_0_tse|tse_mac|i_lvdsio_0|core_dpa_data_out_0_0 to bup_qsys_inst|tse_0_tse|tse_mac|i_lvdsio_0|core_core_ck_name_0                                               ; Meets timing requirements: No further analysis performed. ; None                                                                                                                              ;
; Transfer from bup_qsys_inst|tse_0_tse|tse_mac|i_lvdsio_0|core_dpa_data_out_0_3 to bup_qsys_inst|tse_0_tse|tse_mac|i_lvdsio_0|core_core_ck_name_0                                               ; Meets timing requirements: No further analysis performed. ; None                                                                                                                              ;
; Transfer from bup_qsys_inst|tse_0_tse|tse_mac|i_lvdsio_0|core_dpa_data_out_0_4 to bup_qsys_inst|tse_0_tse|tse_mac|i_lvdsio_0|core_core_ck_name_0                                               ; Meets timing requirements: No further analysis performed. ; None                                                                                                                              ;
; Transfer from bup_qsys_inst|tse_0_tse|tse_mac|i_lvdsio_0|core_dpa_data_out_0_1 to bup_qsys_inst|tse_0_tse|tse_mac|i_lvdsio_0|core_core_ck_name_0                                               ; Meets timing requirements: No further analysis performed. ; None                                                                                                                              ;
; Transfer from clk_s10top_125m_p to bup_qsys_inst|tse_0_tse|tse_mac|i_lvdsio_0|core|arch_inst|pll_inst|internal_pll_fclk1                                                                       ; Meets timing requirements: No further analysis performed. ; None                                                                                                                              ;
; Clock Domain bup_qsys_inst|tse_0_tse|tse_mac|i_lvdsio_0|core|arch_inst|pll_inst|internal_pll_outclk4                                                                                           ; Meets timing requirements: No further analysis performed. ; None                                                                                                                              ;
; Transfer from clk_50m_s10 to bup_qsys_inst|tse_0_tse|tse_mac|i_lvdsio_0|core_core_ck_name_0                                                                                                    ; Meets timing requirements: No further analysis performed. ; None                                                                                                                              ;
; Transfer from clk_s10top_125m_p to bup_qsys_inst|tse_0_tse|tse_mac|i_lvdsio_0|core_core_ck_name_0                                                                                              ; Meets timing requirements: No further analysis performed. ; None                                                                                                                              ;
; Transfer from altera_reserved_tck to clk_50m_s10                                                                                                                                               ; Meets timing requirements: No further analysis performed. ; None                                                                                                                              ;
; Transfer from clk_50m_s10 to altera_reserved_tck                                                                                                                                               ; Meets timing requirements: No further analysis performed. ; None                                                                                                                              ;
+------------------------------------------------------------------------------------------------------------------------------------------------------------------------------------------------+-----------------------------------------------------------+-----------------------------------------------------------------------------------------------------------------------------------+


Critical Chain Summary for Transfer from bup_qsys_inst|tse_0_tse|tse_mac|i_lvdsio_0|core_core_ck_name_0 to clk_50m_s10
===============================================================================
+------------------------------------------------------------------------------+
; Recommendations for Critical Chain                                           ;
+------------------------------------------------------------------------------+
; Recommendation                                                               ;
+------------------------------------------------------------------------------+
; The critical chain is limited by: Path Limit                                 ;
;                                                                              ;
; 1) None.  Performance limit reached.                                         ;
;    The critical chain is a path with no available register locations within. ;
+------------------------------------------------------------------------------+

+------------------------------------------------------------------------------------------------------------------------------------------------------------------------------------------------------+
; Critical Chain Details                                                                                                                                                                               ;
+----------------------+------------------------------+-------------+----------------------------------------------------------------------------------------------------------------------------------+
; Path Info            ; Register                     ; Register ID ; Element                                                                                                                          ;
+----------------------+------------------------------+-------------+----------------------------------------------------------------------------------------------------------------------------------+
; Long Path (Critical) ; REG (Metastability required) ; #1          ; bup_qsys_inst|tse_0_tse|tse_mac|i_tse_pcs_0|altera_tse_top_1000_base_x_inst|U_SYNC_3|std_sync_no_cut|dreg[1]                     ;
; Long Path (Critical) ;                              ;             ; bup_qsys_inst|tse_0_tse|tse_mac|i_tse_pcs_0|altera_tse_top_1000_base_x_inst|U_SYNC_3|std_sync_no_cut|dreg[1]|q                   ;
; Long Path (Critical) ;                              ;             ; bup_qsys_inst|tse_0_tse|tse_mac|i_tse_pcs_0|altera_tse_top_1000_base_x_inst|U_SYNC_3|std_sync_no_cut|dreg[1]~la_mlab/laboutb[13] ;
; Long Path (Critical) ;                              ;             ; auto_fab_0|auto_export_alt_sld_fab_0_alt_sld_fab_0_auto_signaltap_status_sld_signaltap_inst_acq_trigger_in[5]|input              ;
; Long Path (Critical) ;                              ;             ; auto_fab_0|auto_export_alt_sld_fab_0_alt_sld_fab_0_auto_signaltap_status_sld_signaltap_inst_acq_trigger_in[5]                    ;
; Long Path (Critical) ;                              ;             ; auto_fab_0|alt_sld_fab_0|alt_sld_fab_0|auto_signaltap_status|sld_signaltap_inst|acq_trigger_in_reg[5]|d                          ;
; Long Path (Critical) ; REG (Metastability required) ; #2          ; auto_fab_0|alt_sld_fab_0|alt_sld_fab_0|auto_signaltap_status|sld_signaltap_inst|acq_trigger_in_reg[5]                            ;
+----------------------+------------------------------+-------------+----------------------------------------------------------------------------------------------------------------------------------+



Critical Chain Summary for Transfer from bup_qsys_inst|tse_0_tse|tse_mac|i_lvdsio_0|core|arch_inst|pll_inst|internal_pll_loaden1 to bup_qsys_inst|tse_0_tse|tse_mac|i_lvdsio_0|core|arch_inst|pll_inst|internal_pll_fclk1
===============================================================================
+----------------------------------------------------------------+
; Recommendations for Critical Chain                             ;
+----------------------------------------------------------------+
; Recommendation                                                 ;
+----------------------------------------------------------------+
; The critical chain is limited by: Insufficient Registers       ;
;                                                                ;
; 1) Reduce the delay of 'Long Paths' in the chain               ;
;   or insert more pipeline stages for 'Long Paths' in the chain ;
;   or remove retiming restrictions                              ;
+----------------------------------------------------------------+

+------------------------------------------------------------------------------------------------------------------------------------------------------------------------------------------------------+
; Critical Chain Details                                                                                                                                                                               ;
+--------------------------+--------------+-------------+----------------------------------------------------------------------------------------------------------------------------------------------+
; Path Info                ; Register     ; Register ID ; Element                                                                                                                                      ;
+--------------------------+--------------+-------------+----------------------------------------------------------------------------------------------------------------------------------------------+
; Extend to locatable node ; REG (PLL)    ; #1          ; bup_qsys_inst|tse_0_tse|tse_mac|i_lvdsio_0|core|arch_inst|pll_inst|internal_pll|stratix10_altera_iopll_i|s10_iopll.fourteennm_pll~c3cntr_reg ;
; Long Path (Critical)     ;              ;             ; bup_qsys_inst|tse_0_tse|tse_mac|i_lvdsio_0|core|arch_inst|pll_inst|internal_pll|stratix10_altera_iopll_i|s10_iopll.fourteennm_pll|loaden[1]  ;
; Long Path (Critical)     ;              ;             ; bup_qsys_inst|tse_0_tse|tse_mac|i_lvdsio_0|core|arch_inst|default_lvds_clock_tree.lvds_clock_tree_inst|loaden_in                             ;
; Long Path (Critical)     ;              ;             ; bup_qsys_inst|tse_0_tse|tse_mac|i_lvdsio_0|core|arch_inst|channels[0].tx.serdes_dpa_inst|loaden                                              ;
; Long Path (Critical)     ; REG (BURIED) ; #2          ; bup_qsys_inst|tse_0_tse|tse_mac|i_lvdsio_0|core|arch_inst|channels[0].tx.serdes_dpa_inst~tx_internal_reg                                     ;
+--------------------------+--------------+-------------+----------------------------------------------------------------------------------------------------------------------------------------------+



Transfer from clk_s10top_125m_p to clk_50m_s10 (Meets timing requirements: No further analysis performed.)
===============================================================================


Transfer from bup_qsys_inst|tse_0_tse|tse_mac|i_lvdsio_0|core_core_ck_name_0 to clk_s10top_125m_p (Meets timing requirements: No further analysis performed.)
===============================================================================


Clock Domain clk_50m_s10 (Meets timing requirements: No further analysis performed.)
===============================================================================


Clock Domain clk_s10top_125m_p (Meets timing requirements: No further analysis performed.)
===============================================================================


Transfer from clk_50m_s10 to clk_s10top_125m_p (Meets timing requirements: No further analysis performed.)
===============================================================================


Clock Domain altera_reserved_tck (Meets timing requirements: No further analysis performed.)
===============================================================================


Clock Domain bup_qsys_inst|tse_0_tse|tse_mac|i_lvdsio_0|core_core_ck_name_0 (Meets timing requirements: No further analysis performed.)
===============================================================================


Transfer from bup_qsys_inst|tse_0_tse|tse_mac|i_lvdsio_0|core_dpa_data_out_0_9 to bup_qsys_inst|tse_0_tse|tse_mac|i_lvdsio_0|core_core_ck_name_0 (Meets timing requirements: No further analysis performed.)
===============================================================================


Transfer from bup_qsys_inst|tse_0_tse|tse_mac|i_lvdsio_0|core_dpa_data_out_0_8 to bup_qsys_inst|tse_0_tse|tse_mac|i_lvdsio_0|core_core_ck_name_0 (Meets timing requirements: No further analysis performed.)
===============================================================================


Transfer from bup_qsys_inst|tse_0_tse|tse_mac|i_lvdsio_0|core_dpa_data_out_0_2 to bup_qsys_inst|tse_0_tse|tse_mac|i_lvdsio_0|core_core_ck_name_0 (Meets timing requirements: No further analysis performed.)
===============================================================================


Transfer from bup_qsys_inst|tse_0_tse|tse_mac|i_lvdsio_0|core_dpa_data_out_0_6 to bup_qsys_inst|tse_0_tse|tse_mac|i_lvdsio_0|core_core_ck_name_0 (Meets timing requirements: No further analysis performed.)
===============================================================================


Transfer from bup_qsys_inst|tse_0_tse|tse_mac|i_lvdsio_0|core_dpa_data_out_0_5 to bup_qsys_inst|tse_0_tse|tse_mac|i_lvdsio_0|core_core_ck_name_0 (Meets timing requirements: No further analysis performed.)
===============================================================================


Transfer from bup_qsys_inst|tse_0_tse|tse_mac|i_lvdsio_0|core_dpa_data_out_0_7 to bup_qsys_inst|tse_0_tse|tse_mac|i_lvdsio_0|core_core_ck_name_0 (Meets timing requirements: No further analysis performed.)
===============================================================================


Transfer from bup_qsys_inst|tse_0_tse|tse_mac|i_lvdsio_0|core_dpa_data_out_0_0 to bup_qsys_inst|tse_0_tse|tse_mac|i_lvdsio_0|core_core_ck_name_0 (Meets timing requirements: No further analysis performed.)
===============================================================================


Transfer from bup_qsys_inst|tse_0_tse|tse_mac|i_lvdsio_0|core_dpa_data_out_0_3 to bup_qsys_inst|tse_0_tse|tse_mac|i_lvdsio_0|core_core_ck_name_0 (Meets timing requirements: No further analysis performed.)
===============================================================================


Transfer from bup_qsys_inst|tse_0_tse|tse_mac|i_lvdsio_0|core_dpa_data_out_0_4 to bup_qsys_inst|tse_0_tse|tse_mac|i_lvdsio_0|core_core_ck_name_0 (Meets timing requirements: No further analysis performed.)
===============================================================================


Transfer from bup_qsys_inst|tse_0_tse|tse_mac|i_lvdsio_0|core_dpa_data_out_0_1 to bup_qsys_inst|tse_0_tse|tse_mac|i_lvdsio_0|core_core_ck_name_0 (Meets timing requirements: No further analysis performed.)
===============================================================================


Transfer from clk_s10top_125m_p to bup_qsys_inst|tse_0_tse|tse_mac|i_lvdsio_0|core|arch_inst|pll_inst|internal_pll_fclk1 (Meets timing requirements: No further analysis performed.)
===============================================================================


Clock Domain bup_qsys_inst|tse_0_tse|tse_mac|i_lvdsio_0|core|arch_inst|pll_inst|internal_pll_outclk4 (Meets timing requirements: No further analysis performed.)
===============================================================================


Transfer from clk_50m_s10 to bup_qsys_inst|tse_0_tse|tse_mac|i_lvdsio_0|core_core_ck_name_0 (Meets timing requirements: No further analysis performed.)
===============================================================================


Transfer from clk_s10top_125m_p to bup_qsys_inst|tse_0_tse|tse_mac|i_lvdsio_0|core_core_ck_name_0 (Meets timing requirements: No further analysis performed.)
===============================================================================


Transfer from altera_reserved_tck to clk_50m_s10 (Meets timing requirements: No further analysis performed.)
===============================================================================


Transfer from clk_50m_s10 to altera_reserved_tck (Meets timing requirements: No further analysis performed.)
===============================================================================


+-----------------+
; Retime Messages ;
+-----------------+
Info: *******************************************************************
Info: Running Quartus Prime Fitter
    Info: Version 18.0.0 Build 219 04/25/2018 SJ Pro Edition
    Info: Processing started: Mon Jun 10 12:33:59 2019
Info: Command: quartus_fit --read_settings_files=on --write_settings_files=off s10_fpga_bup -c s10_fpga_bup
Info: Using INI file /hepuser/shroffm2/FPGA/stratix10GX_1sg280uf50_fpga_revd_v18.0b219_v1.0/examples/board_update_portal/ES/board_update_portal/quartus.ini
Info: qfit2_default_script.tcl version: #1
Info: Project  = s10_fpga_bup
Info: Revision = s10_fpga_bup
Info: Temporarily removing clocks slower than 8.000  bup_qsys_inst|tse_0_tse|tse_mac|i_lvdsio_0|core_dpa_data_out_0_0
    Info: bup_qsys_inst|tse_0_tse|tse_mac|i_lvdsio_0|core_dpa_data_out_0_0_neg
Info: Temporarily removing clocks slower than 8.000  bup_qsys_inst|tse_0_tse|tse_mac|i_lvdsio_0|core_dpa_data_out_0_1
    Info: bup_qsys_inst|tse_0_tse|tse_mac|i_lvdsio_0|core_dpa_data_out_0_1_neg
Info: Temporarily removing clocks slower than 8.000  bup_qsys_inst|tse_0_tse|tse_mac|i_lvdsio_0|core_dpa_data_out_0_2
    Info: bup_qsys_inst|tse_0_tse|tse_mac|i_lvdsio_0|core_dpa_data_out_0_2_neg
Info: Temporarily removing clocks slower than 8.000  bup_qsys_inst|tse_0_tse|tse_mac|i_lvdsio_0|core_dpa_data_out_0_3
    Info: bup_qsys_inst|tse_0_tse|tse_mac|i_lvdsio_0|core_dpa_data_out_0_3_neg
Info: Temporarily removing clocks slower than 8.000  bup_qsys_inst|tse_0_tse|tse_mac|i_lvdsio_0|core_dpa_data_out_0_4
    Info: bup_qsys_inst|tse_0_tse|tse_mac|i_lvdsio_0|core_dpa_data_out_0_4_neg
Info: Temporarily removing clocks slower than 8.000  bup_qsys_inst|tse_0_tse|tse_mac|i_lvdsio_0|core_dpa_data_out_0_5
    Info: bup_qsys_inst|tse_0_tse|tse_mac|i_lvdsio_0|core_dpa_data_out_0_5_neg
Info: Temporarily removing clocks slower than 8.000  bup_qsys_inst|tse_0_tse|tse_mac|i_lvdsio_0|core_dpa_data_out_0_6
    Info: bup_qsys_inst|tse_0_tse|tse_mac|i_lvdsio_0|core_dpa_data_out_0_6_neg
Info: Temporarily removing clocks slower than 8.000  bup_qsys_inst|tse_0_tse|tse_mac|i_lvdsio_0|core_dpa_data_out_0_7
    Info: bup_qsys_inst|tse_0_tse|tse_mac|i_lvdsio_0|core_dpa_data_out_0_7_neg
Info: Temporarily removing clocks slower than 8.000  bup_qsys_inst|tse_0_tse|tse_mac|i_lvdsio_0|core_dpa_data_out_0_8
    Info: bup_qsys_inst|tse_0_tse|tse_mac|i_lvdsio_0|core_dpa_data_out_0_8_neg
Info: Temporarily removing clocks slower than 8.000  bup_qsys_inst|tse_0_tse|tse_mac|i_lvdsio_0|core_dpa_data_out_0_9
    Info: bup_qsys_inst|tse_0_tse|tse_mac|i_lvdsio_0|core_dpa_data_out_0_9_neg
Info (17966): Starting Hyper-Retimer operations.
Info (18914): The Hyper-Retimer was unable to optimize the design due to retiming restrictions. Run Fast Forward Timing Closure Recommendations to see step-by-step suggestions for design changes and show the estimated performance improvement from making these changes.
Info (17968): Completed Hyper-Retimer operations.
Info (18821): Fitter Hyper-Retimer operations ending: elapsed time is 00:00:26
Info: Entering s10_fpga_bup.sdc


