Info: Generated by version: 17.0 build 238
Info: Starting: Create block symbol file (.bsf)
Info: qsys-generate /data/nwang/S10_SI/pld/SSS_Q17_B238_reset_filter_signaltap_debug_reset_avalon/ip/bup_qsys/eth_tse.ip --block-symbol-file --output-directory=/data/nwang/S10_SI/pld/SSS_Q17_B238_reset_filter_signaltap_debug_reset_avalon/ip/bup_qsys/eth_tse --family="Stratix 10" --part=1SG280LU3F50E1VGS1
Info: qsys-generate succeeded.
Info: Finished: Create block symbol file (.bsf)
Info: 
Info: Starting: Create HDL design files for synthesis
Info: qsys-generate /data/nwang/S10_SI/pld/SSS_Q17_B238_reset_filter_signaltap_debug_reset_avalon/ip/bup_qsys/eth_tse.ip --synthesis=VERILOG --output-directory=/data/nwang/S10_SI/pld/SSS_Q17_B238_reset_filter_signaltap_debug_reset_avalon/ip/bup_qsys/eth_tse --family="Stratix 10" --part=1SG280LU3F50E1VGS1
Info: eth_tse: "Transforming system: eth_tse"
Info: eth_tse: Running transform generation_view_transform
Info: eth_tse: Running transform generation_view_transform took 0.000s
Info: eth_tse: Running transform generation_view_transform
Info: eth_tse: Running transform generation_view_transform took 0.000s
Info: eth_tse: Running transform interconnect_transform_chooser
Info: eth_tse: Running transform interconnect_transform_chooser took 0.008s
Info: eth_tse: "Naming system components in system: eth_tse"
Info: eth_tse: "Processing generation queue"
Info: eth_tse: "Generating: eth_tse"
Info: eth_tse: Done "eth_tse" with 1 modules, 1 files
Info: qsys-generate succeeded.
Info: Finished: Create HDL design files for synthesis
